{
	"info": {
		"_postman_id": "1186902c-a4d1-41bb-868c-b0673e3764f9",
		"name": "Kotlin + Java",
		"schema": "https://schema.getpostman.com/json/collection/v2.0.0/collection.json",
		"_exporter_id": "28302835"
	},
	"item": [
		{
			"name": "Todo",
			"item": [
				{
					"name": "Get todos",
					"request": {
						"auth": {
							"type": "basic",
							"basic": {
								"password": "user",
								"username": "user"
							}
						},
						"method": "GET",
						"header": [],
						"url": "http://localhost:8080/api/todos"
					},
					"response": []
				},
				{
					"name": "Get todo",
					"request": {
						"auth": {
							"type": "basic",
							"basic": {
								"password": "user",
								"username": "user"
							}
						},
						"method": "GET",
						"header": [],
						"url": "http://localhost:8080/api/todos/1e939507-3f06-4039-b3e9-3953953a8105"
					},
					"response": []
				},
				{
					"name": "Create a todo",
					"request": {
						"auth": {
							"type": "basic",
							"basic": {
								"password": "user",
								"username": "user"
							}
						},
						"method": "POST",
						"header": [],
						"body": {
							"mode": "raw",
							"raw": "{\n    \"name\": \"This a new todo\"\n}",
							"options": {
								"raw": {
									"language": "json"
								}
							}
						},
						"url": "http://localhost:8080/api/todos"
					},
					"response": []
				},
				{
					"name": "Update todo",
					"request": {
						"auth": {
							"type": "basic",
							"basic": {
								"password": "user",
								"username": "user"
							}
						},
						"method": "PUT",
						"header": [],
						"body": {
							"mode": "raw",
							"raw": "{\r\n    \"name\": \"This is the new title of the todo item\",\r\n    \"completed\": true\r\n}",
							"options": {
								"raw": {
									"language": "json"
								}
							}
						},
						"url": "http://localhost:8080/api/todos/1e939507-3f06-4039-b3e9-3953953a8105"
					},
					"response": []
				},
				{
					"name": "Delete a todo",
					"request": {
						"auth": {
							"type": "basic",
							"basic": {
								"password": "user",
								"username": "user"
							}
						},
						"method": "DELETE",
						"header": [],
						"url": "http://localhost:8080/api/todos/1e939507-3f06-4039-b3e9-3953953a8105"
					},
					"response": []
				},
				{
					"name": "Search a todo by name",
					"request": {
						"auth": {
							"type": "basic",
							"basic": {
								"password": "user",
								"username": "user"
							}
						},
						"method": "GET",
						"header": [],
						"url": {
							"raw": "http://localhost:8080/api/todos/search?text=Test",
							"protocol": "http",
							"host": [
								"localhost"
							],
							"port": "8080",
							"path": [
								"api",
								"todos",
								"search"
							],
							"query": [
								{
									"key": "text",
									"value": "Test"
								}
							]
						}
					},
					"response": []
				}
			]
		},
		{
			"name": "Post",
			"item": [
				{
					"name": "Fetch all posts",
					"request": {
						"auth": {
							"type": "basic",
							"basic": {
								"password": "admin",
								"username": "admin"
							}
						},
						"method": "GET",
						"header": [],
						"url": "http://localhost:8080/api/posts"
					},
					"response": []
				},
				{
					"name": "Fetch a single post",
					"request": {
						"method": "GET",
						"header": [],
						"url": "http://localhost:8080/api/posts/1"
					},
					"response": []
				},
				{
					"name": "Update a post",
					"request": {
						"method": "PUT",
						"header": [],
						"body": {
							"mode": "raw",
							"raw": "{\n    \"title\": \"Updated title\"\n}",
							"options": {
								"raw": {
									"language": "json"
								}
							}
						},
						"url": "http://localhost:8080/api/posts/1"
					},
					"response": []
				},
				{
					"name": "Create a post",
					"request": {
						"method": "POST",
						"header": [],
						"body": {
							"mode": "raw",
							"raw": "{\r\n    \"userId\": 1,\r\n    \"title\": \"This will be the title of the post\",\r\n    \"body\": \"This will be the body of the post\",\r\n    \"id\": 2\r\n}",
							"options": {
								"raw": {
									"language": "json"
								}
							}
						},
						"url": "http://localhost:8080/api/posts"
					},
					"response": []
				},
				{
					"name": "Delete a post",
					"request": {
						"method": "DELETE",
						"header": [],
						"url": "http://localhost:8080/api/posts/3"
					},
					"response": []
				}
			]
		},
		{
			"name": "Project",
			"item": [
				{
					"name": "Fetch all projects",
					"request": {
						"auth": {
							"type": "basic",
							"basic": {
								"password": "user",
								"username": "user"
							}
						},
						"method": "GET",
						"header": [],
						"url": "http://localhost:8080/api/projects"
					},
					"response": []
				},
				{
					"name": "Fetch a single project",
					"request": {
						"auth": {
							"type": "basic",
							"basic": {
								"password": "user",
								"username": "user"
							}
						},
						"method": "GET",
						"header": [],
						"url": "http://localhost:8080/api/projects/1"
					},
					"response": []
				},
				{
					"name": "Update a project name",
					"request": {
						"auth": {
							"type": "basic",
							"basic": {
								"password": "user",
								"username": "user"
							}
						},
						"method": "PUT",
						"header": [],
						"body": {
							"mode": "raw",
							"raw": "{\n    \"name\": \"This is the updated name\"\n}",
							"options": {
								"raw": {
									"language": "json"
								}
							}
						},
						"url": "http://localhost:8080/api/projects/1"
					},
					"response": []
				},
				{
					"name": "Create a project",
					"request": {
						"auth": {
							"type": "basic",
							"basic": {
								"password": "user",
								"username": "user"
							}
						},
						"method": "POST",
						"header": [],
						"body": {
							"mode": "raw",
							"raw": "{\n    \"name\": \"The project name\"\n}",
							"options": {
								"raw": {
									"language": "json"
								}
							}
						},
						"url": "http://localhost:8080/api/projects"
					},
					"response": []
				},
				{
					"name": "Delete a project",
					"request": {
						"auth": {
							"type": "basic",
							"basic": {
								"password": "user",
								"username": "user"
							}
						},
						"method": "DELETE",
						"header": [],
						"url": "http://localhost:8080/api/projects/0"
					},
					"response": []
				}
			]
		},
		{
			"name": "Actuator",
			"item": [
				{
					"name": "Health",
					"request": {
						"auth": {
							"type": "basic",
							"basic": {
								"password": "user",
								"username": "user"
							}
						},
						"method": "GET",
						"header": [],
						"url": "http://localhost:8080/api/actuator/health"
					},
					"response": []
				},
				{
					"name": "Beans",
					"request": {
						"auth": {
							"type": "basic",
							"basic": {
								"password": "user",
								"username": "user"
							}
						},
						"method": "GET",
						"header": [],
						"url": "http://localhost:8080/api/actuator/beans"
					},
					"response": []
				},
				{
					"name": "Env",
					"request": {
						"auth": {
							"type": "basic",
							"basic": {
								"password": "user",
								"username": "user"
							}
						},
						"method": "GET",
						"header": [],
						"url": "http://localhost:8080/api/actuator/env"
					},
					"response": []
				},
				{
					"name": "Metrics",
					"request": {
						"auth": {
							"type": "basic",
							"basic": {
								"password": "user",
								"username": "user"
							}
						},
						"method": "GET",
						"header": [],
						"url": "http://localhost:8080/api/actuator/metrics"
					},
					"response": []
				}
			]
		},
		{
			"name": "Get user info",
			"request": {
				"auth": {
					"type": "basic",
					"basic": {
						"password": "admin",
						"username": "admin"
					}
				},
				"method": "GET",
				"header": [],
				"url": "http://localhost:8080/api/me"
			},
			"response": []
		}
	]
}